module main

go 1.19

require gitlab.com/rnicholl/diskfs-fork v1.3.0

require (
	github.com/google/uuid v1.3.0 // indirect
	github.com/pierrec/lz4 v2.6.1+incompatible // indirect
	github.com/pkg/xattr v0.4.9 // indirect
	github.com/sirupsen/logrus v1.9.0 // indirect
	github.com/ulikunitz/xz v0.5.11 // indirect
	golang.org/x/sys v0.5.0 // indirect
	gopkg.in/djherbis/times.v1 v1.3.0 // indirect
)
